{
    "$schema": "https://vega.github.io/schema/vega/v5.json",
    "description": "A basic line chart example.",
    "width": 1200,
    "height": 600,
    "padding": 5,

    "config": {
        "axis": {
            "grid": true,
            "gridColor": "#dedede"
        }
    },


    "data": [
        {
            "name": "table",
            "url" : "/data",
            "format": {
                "type": "dsv",
                "delimiter": ";",
                "parse": {
                    "timestamp": "number",
                    "iaq":"number",
                    "temperature": "number",
                    "humidity": "number",
                    "pressure": "number",
                    "gas": "number",
                    "sensor": "string"
                }
            },
            "transform": [
                {
                    "type": "formula",
                    "as": "gas",
                    "expr": "datum.gas / 10000"
                }
            ]
        }
    ],

    "scales": [
        {
            "name": "tsscale",
            "type": "time",
            "range": "width",
            "domain": {"data": "table", "field": "timestamp"}
        },
        {
            "name": "iaqscale",
            "type": "linear",
            "range": "height",
            "nice": true,
            "zero": true,
            "domain": {"data": "table", "field": "iaq"}
        },
        {
            "name": "tempscale",
            "type": "linear",
            "range": "height",
            "nice": true,
            "zero": true,
            "domain": {"data": "table", "fields": ["iaq","temperature", "humidity"]}
        },
        {
            "name": "color",
            "type": "ordinal",
            "range": "category",
            "domain": {"data": "table", "field": "sensor"}
        },
        {
            "name": "kindscale",
            "type": "ordinal",
            "range": "category",
            "domain": ["iaq", "temperature", "humidity", "gas"]
        }
    ],

    "legends": [
        {
            "fill": "kindscale",
            "title": "Sensor",
            "type" : "symbol"
        }
    ],

    "axes": [
        {
            "orient": "bottom",
            "scale": "tsscale",
            "title": "Time"
        },
        {
            "orient": "left",
            "scale": "iaqscale",
            "title": "COV"
        },
        {
            "orient": "right",
            "scale": "tempscale",
            "title": "% 1000"
        }
    ],

    "marks": [
        {
            "type": "group",
            "from": {
                "facet": {
                    "name": "series",
                    "data": "table",
                    "groupby": ["sensor"]
                }
            },
            "marks": [
                {
                    "type": "line",
                    "from": {"data": "series"},
                    "defined" : false,
                    "encode": {
                        "enter": {
                            "x": {"scale": "tsscale", "field": "timestamp"},
                            "y": {"scale": "iaqscale", "field": "iaq"},
                            "stroke": {"scale": "kindscale", "value": "iaq" },
                            "strokeWidth": {"value": 2}
                        }
                    }
                }, {
                    "type": "line",
                    "from": {"data": "series"},
                    "defined" : false,
                    "encode": {
                        "enter": {
                            "x": {"scale": "tsscale", "field": "timestamp"},
                            "y": {"scale": "tempscale", "field": "temperature"},
                            "stroke": {"scale": "kindscale", "value": "temperature" }
                        }
                    }
                }, {
                    "type": "line",
                    "from": {"data": "series"},
                    "defined" : false,
                    "encode": {
                        "enter": {
                            "x": {"scale": "tsscale", "field": "timestamp"},
                            "y": {"scale": "tempscale", "field": "humidity"},
                            "stroke": {"scale": "kindscale", "value": "humidity" }
                        }
                    }
                }, {
                    "type": "line",
                    "from": {"data": "series"},
                    "defined" : false,
                    "encode": {
                        "enter": {
                            "x": {"scale": "tsscale", "field": "timestamp"},
                            "y": {"scale": "tempscale", "field": "gas"},
                            "stroke": {"scale": "kindscale", "value": "gas" }
                        }
                    }
                }
            ]
        }
    ]
}
